uP_tb.vcd
$date
	Sun Nov 22 11:57:32 2020
$end
$version
	Icarus Verilog
$end
$timescale
	1ps
$end
$scope module testbench $end
$var wire 4 ! data_bus [3:0] $end
$var wire 1 " z_flag $end
$var wire 8 # program_byte [7:0] $end
$var wire 1 $ phase $end
$var wire 4 % oprnd [3:0] $end
$var wire 4 & instr [3:0] $end
$var wire 1 ' c_flag $end
$var wire 12 ( address_RAM [11:0] $end
$var wire 4 ) accu [3:0] $end
$var wire 12 * PC [11:0] $end
$var wire 4 + FF_out [3:0] $end
$var reg 1 , clock $end
$var reg 4 - pushbuttons [3:0] $end
$var reg 1 . reset $end
$var integer 32 / immediateDelay [31:0] $end
$var integer 32 0 jumpDelay [31:0] $end
$var integer 32 1 memoryDelay [31:0] $end
$var integer 32 2 nota [31:0] $end
$scope module uPmodule $end
$var wire 4 3 accu [3:0] $end
$var wire 12 4 address_RAM [11:0] $end
$var wire 4 5 bus_datos [3:0] $end
$var wire 12 6 cablePC [11:0] $end
$var wire 8 7 cableROM [7:0] $end
$var wire 1 8 cablec $end
$var wire 1 9 cablez $end
$var wire 1 , clock $end
$var wire 4 : data_bus [3:0] $end
$var wire 4 ; instr [3:0] $end
$var wire 1 < loadFetch $end
$var wire 4 = oprnd [3:0] $end
$var wire 4 > pushbuttons [3:0] $end
$var wire 1 . reset $end
$var wire 1 ? ze $end
$var wire 1 " z_flag $end
$var wire 1 @ weRAM $end
$var wire 7 A signal [6:0] $end
$var wire 3 B s [2:0] $end
$var wire 8 C program_byte [7:0] $end
$var wire 1 $ phase $end
$var wire 4 D opr [3:0] $end
$var wire 1 E oeOprnd $end
$var wire 1 F oeIN $end
$var wire 1 G oeALU $end
$var wire 1 H loadPC $end
$var wire 1 I loadOut $end
$var wire 1 J loadFlags $end
$var wire 1 K loadA $end
$var wire 4 L ins [3:0] $end
$var wire 1 M incPC $end
$var wire 1 N csRAM $end
$var wire 13 O control [12:0] $end
$var wire 8 P cableFetch [7:0] $end
$var wire 12 Q cableAddress [11:0] $end
$var wire 4 R cableAccu [3:0] $end
$var wire 4 S cableALU [3:0] $end
$var wire 1 ' c_flag $end
$var wire 1 T c $end
$var wire 12 U PC [11:0] $end
$var wire 4 V FF_out [3:0] $end
$scope module busALU $end
$var wire 1 G en $end
$var wire 4 W out [3:0] $end
$var wire 4 X in [3:0] $end
$upscope $end
$scope module busOpr $end
$var wire 1 E en $end
$var wire 4 Y in [3:0] $end
$var wire 4 Z out [3:0] $end
$upscope $end
$scope module busin $end
$var wire 1 F en $end
$var wire 4 [ in [3:0] $end
$var wire 4 \ out [3:0] $end
$upscope $end
$scope module lc1 $end
$var wire 1 , clk $end
$var wire 12 ] data [11:0] $end
$var wire 1 M en $end
$var wire 1 H load $end
$var wire 1 . reset $end
$var reg 12 ^ out [11:0] $end
$upscope $end
$scope module lc2 $end
$var wire 12 _ PC [11:0] $end
$var wire 8 ` program_byte [7:0] $end
$upscope $end
$scope module lc3 $end
$var wire 4 a b [3:0] $end
$var wire 3 b f [2:0] $end
$var wire 1 ? zero $end
$var wire 4 c s [3:0] $end
$var wire 1 T carry $end
$var wire 4 d a [3:0] $end
$var reg 5 e control [4:0] $end
$upscope $end
$scope module lc4 $end
$var wire 12 f address_RAM [11:0] $end
$var wire 1 N csRAM $end
$var wire 4 g saved_data [3:0] $end
$var wire 1 @ weRAM $end
$var reg 4 h salida_datos [3:0] $end
$scope begin MEM_READ $end
$upscope $end
$scope begin MEM_WRITE $end
$upscope $end
$upscope $end
$scope module master $end
$var wire 7 i address [6:0] $end
$var wire 13 j control_signals [12:0] $end
$var reg 13 k q [12:0] $end
$upscope $end
$scope module register1 $end
$var wire 1 , clk $end
$var wire 8 l d [7:0] $end
$var wire 1 < en $end
$var wire 1 . reset $end
$var reg 8 m q [7:0] $end
$upscope $end
$scope module register2 $end
$var wire 1 T c $end
$var wire 1 , clk $end
$var wire 1 J en $end
$var wire 1 . reset $end
$var wire 1 ? z $end
$var wire 1 " z_flag $end
$var wire 2 n d [1:0] $end
$var wire 1 ' c_flag $end
$var reg 2 o q [1:0] $end
$upscope $end
$scope module register3 $end
$var wire 1 , clk $end
$var wire 4 p d [3:0] $end
$var wire 1 K en $end
$var wire 1 . reset $end
$var reg 4 q q [3:0] $end
$upscope $end
$scope module register4 $end
$var wire 1 , clk $end
$var wire 4 r d [3:0] $end
$var wire 1 I en $end
$var wire 1 . reset $end
$var reg 4 s FF_out [3:0] $end
$upscope $end
$scope module toggleFF $end
$var wire 1 , clk $end
$var wire 1 . reset $end
$var wire 1 t w $end
$var wire 1 $ phase $end
$scope module a $end
$var wire 1 , clk $end
$var wire 1 t d $end
$var wire 1 . reset $end
$var reg 1 $ q $end
$upscope $end
$upscope $end
$upscope $end
$upscope $end
$enddefinitions $end
#0
$dumpvars
xt
bx s
bx r
bx q
bx p
bx o
bx n
bx m
bx l
bx k
bx j
bx i
bx h
bx g
bx f
bx e
bx d
bx c
bx b
bx a
bx `
bx _
bx ^
bx ]
bx \
b110 [
bx Z
bx Y
bx X
bx W
bx V
bx U
xT
bx S
bx R
bx Q
bx P
bx O
xN
xM
bx L
xK
xJ
xI
xH
xG
xF
xE
bx D
bx C
bx B
bx A
x@
x?
b110 >
bx =
x<
bx ;
bx :
x9
x8
bx 7
bx 6
bx 5
bx 4
bx 3
b0 2
b100010100 1
b1010010000 0
b10000 /
0.
b110 -
0,
bx +
bx *
bx )
bx (
x'
bx &
bx %
x$
bx #
x"
bx !
$end
#2
b0 5
b0 a
b0 r
b0 !
b0 :
b0 W
b0 Z
b0 \
b0 g
0I
0E
0F
1G
0@
0N
b0 B
b0 b
0J
0K
0H
1M
b1000000001000 O
b1000000001000 j
b1000000001000 k
1?
b0 S
b0 X
b0 c
b0 p
b1 n
0T
1t
1<
b0 %
b0 =
b0 D
b0 Y
b0 &
b0 ;
b0 L
08
0'
09
0"
b0 e
b0 A
b0 i
0$
b0 P
b0 m
b0 o
b0 )
b0 3
b0 R
b0 d
b0 q
b0 +
b0 V
b0 s
b1001111 (
b1001111 4
b1001111 Q
b1001111 ]
b1001111 f
b1001111 7
b1001111 l
b1001111 #
b1001111 C
b1001111 `
b0 6
b0 _
b0 *
b0 U
b0 ^
1.
#3
0.
#5
b0 n
0?
b1111 S
b1111 X
b1111 c
b1111 p
b1111 e
b1111 5
b1111 a
b1111 r
b1111 !
b1111 :
b1111 W
b1111 Z
b1111 \
b1111 g
1E
0G
b10 B
b10 b
1J
1K
0M
b11010000010 O
b11010000010 j
b11010000010 k
b1111 %
b1111 =
b1111 D
b1111 Y
b100 &
b100 ;
b100 L
0t
0<
b111111011111 (
b111111011111 4
b111111011111 Q
b111111011111 ]
b111111011111 f
b11011111 7
b11011111 l
b11011111 #
b11011111 C
b11011111 `
b1 6
b1 _
b1 *
b1 U
b1 ^
b1001111 P
b1001111 m
b100001 A
b100001 i
1$
1,
#10
0,
#15
0E
1G
b0 B
b0 b
0J
0K
1M
b1000000001000 O
b1000000001000 j
b1000000001000 k
1t
1<
b100000 A
b100000 i
0$
b1111 )
b1111 3
b1111 R
b1111 d
b1111 q
1,
#16
b1000110 2
#20
0,
#25
1I
0M
b1001 O
b1001 j
b1001 k
b1101 &
b1101 ;
b1101 L
0t
0<
b111101010001 (
b111101010001 4
b111101010001 Q
b111101010001 ]
b111101010001 f
b1010001 7
b1010001 l
b1010001 #
b1010001 C
b1010001 `
b10 6
b10 _
b10 *
b10 U
b10 ^
b11011111 P
b11011111 m
b1101001 A
b1101001 i
1$
1,
#30
0,
#35
0I
1M
b1000000001000 O
b1000000001000 j
b1000000001000 k
1t
1<
b1101000 A
b1101000 i
0$
b1111 +
b1111 V
b1111 s
1,
#36
b1100111 2
#40
0,
#45
b110 S
b110 X
b110 c
b110 p
b110 e
b110 5
b110 a
b110 r
b110 !
b110 :
b110 W
b110 Z
b110 \
b110 g
1F
0G
b10 B
b10 b
1J
1K
0M
b11010000100 O
b11010000100 j
b11010000100 k
b1 %
b1 =
b1 D
b1 Y
b101 &
b101 ;
b101 L
0t
0<
b101000000 (
b101000000 4
b101000000 Q
b101000000 ]
b101000000 f
b1000000 7
b1000000 l
b1000000 #
b1000000 C
b1000000 `
b11 6
b11 _
b11 *
b11 U
b11 ^
b1010001 P
b1010001 m
b101001 A
b101001 i
1$
1,
#50
0,
#55
0F
1G
b0 B
b0 b
0J
0K
1M
b1000000001000 O
b1000000001000 j
b1000000001000 k
1t
1<
b101000 A
b101000 i
0$
b110 )
b110 3
b110 R
b110 d
b110 q
1,
#56
b10001000 2
#60
0,
#65
b1 n
1?
b0 S
b0 X
b0 c
b0 p
b0 e
b0 5
b0 a
b0 r
b0 !
b0 :
b0 W
b0 Z
b0 \
b0 g
1E
0G
b10 B
b10 b
1J
1K
0M
b11010000010 O
b11010000010 j
b11010000010 k
b0 %
b0 =
b0 D
b0 Y
b100 &
b100 ;
b100 L
0t
0<
b1001111 (
b1001111 4
b1001111 Q
b1001111 ]
b1001111 f
b1001111 7
b1001111 l
b1001111 #
b1001111 C
b1001111 `
b100 6
b100 _
b100 *
b100 U
b100 ^
b1000000 P
b1000000 m
b100001 A
b100001 i
1$
1,
#70
0,
#75
0E
1G
b0 B
b0 b
0J
0K
1M
b1000000001000 O
b1000000001000 j
b1000000001000 k
1t
1<
19
1"
b100010 A
b100010 i
0$
b1 o
b0 )
b0 3
b0 R
b0 d
b0 q
1,
#80
0,
#85
b0 n
0?
b1111 S
b1111 X
b1111 c
b1111 p
b1111 e
b1111 5
b1111 a
b1111 r
b1111 !
b1111 :
b1111 W
b1111 Z
b1111 \
b1111 g
1E
0G
b10 B
b10 b
1J
1K
0M
b11010000010 O
b11010000010 j
b11010000010 k
b1111 %
b1111 =
b1111 D
b1111 Y
0t
0<
b111110101010 (
b111110101010 4
b111110101010 Q
b111110101010 ]
b111110101010 f
b10101010 7
b10101010 l
b10101010 #
b10101010 C
b10101010 `
b101 6
b101 _
b101 *
b101 U
b101 ^
b1001111 P
b1001111 m
b100011 A
b100011 i
1$
1,
#90
0,
#95
0E
1G
b0 B
b0 b
0J
0K
1M
b1000000001000 O
b1000000001000 j
b1000000001000 k
1t
1<
09
0"
b100000 A
b100000 i
0$
b0 o
b1111 )
b1111 3
b1111 R
b1111 d
b1111 q
1,
#100
0,
#105
b1001 S
b1001 X
b1001 c
b1001 p
b10 n
1T
b1010 5
b1010 a
b1010 r
b1010 !
b1010 :
b1010 W
b1010 Z
b1010 \
b1010 g
b11001 e
1E
0G
b11 B
b11 b
1J
1K
0M
b11011000010 O
b11011000010 j
b11011000010 k
b1010 %
b1010 =
b1010 D
b1010 Y
b1010 &
b1010 ;
b1010 L
0t
0<
b101000101000 (
b101000101000 4
b101000101000 Q
b101000101000 ]
b101000101000 f
b101000 7
b101000 l
b101000 #
b101000 C
b101000 `
b110 6
b110 _
b110 *
b110 U
b110 ^
b10101010 P
b10101010 m
b1010001 A
b1010001 i
1$
1,
#110
0,
#115
b0 n
0T
b1001 5
b1001 a
b1001 r
b1001 !
b1001 :
b1001 W
b1001 Z
b1001 \
b1001 g
0E
1G
b0 B
b0 b
0J
0K
1M
b1000000001000 O
b1000000001000 j
b1000000001000 k
b1001 S
b1001 X
b1001 c
b1001 p
1t
1<
18
1'
b1001 e
b1010100 A
b1010100 i
0$
b10 o
b1001 )
b1001 3
b1001 R
b1001 d
b1001 q
1,
#116
b10101001 2
#120
0,
#125
b1 S
b1 X
b1 c
b1 p
b1000 5
b1000 a
b1000 r
b1000 !
b1000 :
b1000 W
b1000 Z
b1000 \
b1000 g
b1 e
1E
0G
b1 B
b1 b
1J
0M
b1001000010 O
b1001000010 j
b1001000010 k
b1000 %
b1000 =
b1000 D
b1000 Y
b10 &
b10 ;
b10 L
0t
0<
b100001001010 (
b100001001010 4
b100001001010 Q
b100001001010 ]
b100001001010 f
b1001010 7
b1001010 l
b1001010 #
b1001010 C
b1001010 `
b111 6
b111 _
b111 *
b111 U
b111 ^
b101000 P
b101000 m
b10101 A
b10101 i
1$
1,
#130
0,
#135
b1001 S
b1001 X
b1001 c
b1001 p
b1001 5
b1001 a
b1001 r
b1001 !
b1001 :
b1001 W
b1001 Z
b1001 \
b1001 g
b1001 e
0E
1G
b0 B
b0 b
0J
1M
b1000000001000 O
b1000000001000 j
b1000000001000 k
1t
1<
08
0'
b10000 A
b10000 i
0$
b0 o
1,
#136
b11001010 2
#140
0,
#145
b1010 S
b1010 X
b1010 c
b1010 p
b1010 e
b1010 5
b1010 a
b1010 r
b1010 !
b1010 :
b1010 W
b1010 Z
b1010 \
b1010 g
1K
1E
0G
b10 B
b10 b
1J
0M
b11010000010 O
b11010000010 j
b11010000010 k
b1010 %
b1010 =
b1010 D
b1010 Y
b100 &
b100 ;
b100 L
0t
0<
b101000101100 (
b101000101100 4
b101000101100 Q
b101000101100 ]
b101000101100 f
b101100 7
b101100 l
b101100 #
b101100 C
b101100 `
b1000 6
b1000 _
b1000 *
b1000 U
b1000 ^
b1001010 P
b1001010 m
b100001 A
b100001 i
1$
1,
#150
0,
#155
0E
1G
b0 B
b0 b
0J
0K
1M
b1000000001000 O
b1000000001000 j
b1000000001000 k
1t
1<
b100000 A
b100000 i
0$
b1010 )
b1010 3
b1010 R
b1010 d
b1010 q
1,
#160
0,
#165
b10 n
1T
b1110 S
b1110 X
b1110 c
b1110 p
b1100 5
b1100 a
b1100 r
b1100 !
b1100 :
b1100 W
b1100 Z
b1100 \
b1100 g
b11110 e
1E
0G
b1 B
b1 b
1J
0M
b1001000010 O
b1001000010 j
b1001000010 k
b1100 %
b1100 =
b1100 D
b1100 Y
b10 &
b10 ;
b10 L
0t
0<
b110010100001 (
b110010100001 4
b110010100001 Q
b110010100001 ]
b110010100001 f
b10100001 7
b10100001 l
b10100001 #
b10100001 C
b10100001 `
b1001 6
b1001 _
b1001 *
b1001 U
b1001 ^
b101100 P
b101100 m
b10001 A
b10001 i
1$
1,
#170
0,
#175
b1010 S
b1010 X
b1010 c
b1010 p
b0 n
0T
b1010 5
b1010 a
b1010 r
b1010 !
b1010 :
b1010 W
b1010 Z
b1010 \
b1010 g
b1010 e
0E
1G
b0 B
b0 b
0J
1M
b1000000001000 O
b1000000001000 j
b1000000001000 k
1t
1<
18
1'
b10100 A
b10100 i
0$
b10 o
1,
#176
b11101011 2
#180
0,
#185
b1011 S
b1011 X
b1011 c
b1011 p
b0 n
0T
b1 5
b1 a
b1 r
b1 !
b1 :
b1 W
b1 Z
b1 \
b1 g
b1011 e
1K
1E
0G
b11 B
b11 b
1J
0M
b11011000010 O
b11011000010 j
b11011000010 k
b1 %
b1 =
b1 D
b1 Y
b1010 &
b1010 ;
b1010 L
0t
0<
b111101011 (
b111101011 4
b111101011 Q
b111101011 ]
b111101011 f
b11101011 7
b11101011 l
b11101011 #
b11101011 C
b11101011 `
b1010 6
b1010 _
b1010 *
b1010 U
b1010 ^
b10100001 P
b10100001 m
b1010101 A
b1010101 i
1$
1,
#190
0,
#195
b1011 5
b1011 a
b1011 r
b1011 !
b1011 :
b1011 W
b1011 Z
b1011 \
b1011 g
0E
1G
b0 B
b0 b
0J
0K
1M
b1000000001000 O
b1000000001000 j
b1000000001000 k
b1011 S
b1011 X
b1011 c
b1011 p
1t
1<
08
0'
b1011 e
b1010000 A
b1010000 i
0$
b0 o
b1011 )
b1011 3
b1011 R
b1011 d
b1011 q
1,
#196
b100001100 2
#200
0,
#205
b100 S
b100 X
b100 c
b100 p
b1011 5
b1011 a
b1011 r
b1011 !
b1011 :
b1011 W
b1011 Z
b1011 \
b1011 g
b100 e
1E
0G
b100 B
b100 b
1J
1K
0M
b11100000010 O
b11100000010 j
b11100000010 k
b1011 %
b1011 =
b1011 D
b1011 Y
b1110 &
b1110 ;
b1110 L
0t
0<
b101111010000 (
b101111010000 4
b101111010000 Q
b101111010000 ]
b101111010000 f
b11010000 7
b11010000 l
b11010000 #
b11010000 C
b11010000 `
b1011 6
b1011 _
b1011 *
b1011 U
b1011 ^
b11101011 P
b11101011 m
b1110001 A
b1110001 i
1$
1,
#210
0,
#215
b100 5
b100 a
b100 r
b100 !
b100 :
b100 W
b100 Z
b100 \
b100 g
0E
1G
b0 B
b0 b
0J
0K
1M
b1000000001000 O
b1000000001000 j
b1000000001000 k
b100 S
b100 X
b100 c
b100 p
1t
1<
b100 e
b1110000 A
b1110000 i
0$
b100 )
b100 3
b100 R
b100 d
b100 q
1,
#216
b101001110 2
#220
0,
#225
1I
0M
b1001 O
b1001 j
b1001 k
b0 %
b0 =
b0 D
b0 Y
b1101 &
b1101 ;
b1101 L
0t
0<
b1010000 (
b1010000 4
b1010000 Q
b1010000 ]
b1010000 f
b1010000 7
b1010000 l
b1010000 #
b1010000 C
b1010000 `
b1100 6
b1100 _
b1100 *
b1100 U
b1100 ^
b11010000 P
b11010000 m
b1101001 A
b1101001 i
1$
1,
#230
0,
#235
0I
1M
b1000000001000 O
b1000000001000 j
b1000000001000 k
1t
1<
b1101000 A
b1101000 i
0$
b100 +
b100 V
b100 s
1,
#236
b1110 -
b1110 >
b1110 [
b101101111 2
#240
0,
#245
b1110 S
b1110 X
b1110 c
b1110 p
b1110 e
b1110 5
b1110 a
b1110 r
b1110 !
b1110 :
b1110 W
b1110 Z
b1110 \
b1110 g
1F
0G
b10 B
b10 b
1J
1K
0M
b11010000100 O
b11010000100 j
b11010000100 k
b101 &
b101 ;
b101 L
0t
0<
b1110000 (
b1110000 4
b1110000 Q
b1110000 ]
b1110000 f
b1110000 7
b1110000 l
b1110000 #
b1110000 C
b1110000 `
b1101 6
b1101 _
b1101 *
b1101 U
b1101 ^
b1010000 P
b1010000 m
b101001 A
b101001 i
1$
1,
#250
0,
#255
0F
1G
b0 B
b0 b
0J
0K
1M
b1000000001000 O
b1000000001000 j
b1000000001000 k
1t
1<
b101000 A
b101000 i
0$
b1110 )
b1110 3
b1110 R
b1110 d
b1110 q
1,
#256
b110010000 2
#260
0,
#265
1@
1N
b1000000111000 O
b1000000111000 j
b1000000111000 k
b111 &
b111 ;
b111 L
0t
0<
b0 (
b0 4
b0 Q
b0 ]
b0 f
b0 7
b0 l
b0 #
b0 C
b0 `
b1110 6
b1110 _
b1110 *
b1110 U
b1110 ^
b1110000 P
b1110000 m
b111001 A
b111001 i
1$
1,
#270
0,
#275
0@
0N
b1000000001000 O
b1000000001000 j
b1000000001000 k
1t
1<
b111000 A
b111000 i
0$
b1001111 (
b1001111 4
b1001111 Q
b1001111 ]
b1001111 f
b1001111 7
b1001111 l
b1001111 #
b1001111 C
b1001111 `
b1111 6
b1111 _
b1111 *
b1111 U
b1111 ^
1,
#280
0,
#285
b1111 S
b1111 X
b1111 c
b1111 p
b1111 e
b1111 5
b1111 a
b1111 r
b1111 !
b1111 :
b1111 W
b1111 Z
b1111 \
b1111 g
1E
0G
b10 B
b10 b
1J
1K
0M
b11010000010 O
b11010000010 j
b11010000010 k
b1111 %
b1111 =
b1111 D
b1111 Y
b100 &
b100 ;
b100 L
0t
0<
b111101110001 (
b111101110001 4
b111101110001 Q
b111101110001 ]
b111101110001 f
b1110001 7
b1110001 l
b1110001 #
b1110001 C
b1110001 `
b10000 6
b10000 _
b10000 *
b10000 U
b10000 ^
b1001111 P
b1001111 m
b100001 A
b100001 i
1$
1,
#290
0,
#295
0E
1G
b0 B
b0 b
0J
0K
1M
b1000000001000 O
b1000000001000 j
b1000000001000 k
1t
1<
b100000 A
b100000 i
0$
b1111 )
b1111 3
b1111 R
b1111 d
b1111 q
1,
#300
0,
#305
1@
1N
b1000000111000 O
b1000000111000 j
b1000000111000 k
b1 %
b1 =
b1 D
b1 Y
b111 &
b111 ;
b111 L
0t
0<
b100010001 (
b100010001 4
b100010001 Q
b100010001 ]
b100010001 f
b10001 7
b10001 l
b10001 #
b10001 C
b10001 `
b10001 6
b10001 _
b10001 *
b10001 U
b10001 ^
b1110001 P
b1110001 m
b111001 A
b111001 i
1$
1,
#310
0,
#315
0@
0N
b1000000001000 O
b1000000001000 j
b1000000001000 k
1t
1<
b111000 A
b111000 i
0$
b101001010 (
b101001010 4
b101001010 Q
b101001010 ]
b101001010 f
b1001010 7
b1001010 l
b1001010 #
b1001010 C
b1001010 `
b10010 6
b10010 _
b10010 *
b10010 U
b10010 ^
1,
#320
0,
#325
b1010 S
b1010 X
b1010 c
b1010 p
b1010 e
b1010 5
b1010 a
b1010 r
b1010 !
b1010 :
b1010 W
b1010 Z
b1010 \
b1010 g
1E
0G
b10 B
b10 b
1J
1K
0M
b11010000010 O
b11010000010 j
b11010000010 k
b1010 %
b1010 =
b1010 D
b1010 Y
b100 &
b100 ;
b100 L
0t
0<
b101001110010 (
b101001110010 4
b101001110010 Q
b101001110010 ]
b101001110010 f
b1110010 7
b1110010 l
b1110010 #
b1110010 C
b1110010 `
b10011 6
b10011 _
b10011 *
b10011 U
b10011 ^
b1001010 P
b1001010 m
b100001 A
b100001 i
1$
1,
#330
0,
#335
0E
1G
b0 B
b0 b
0J
0K
1M
b1000000001000 O
b1000000001000 j
b1000000001000 k
1t
1<
b100000 A
b100000 i
0$
b1010 )
b1010 3
b1010 R
b1010 d
b1010 q
1,
#340
0,
#345
1@
1N
b1000000111000 O
b1000000111000 j
b1000000111000 k
b10 %
b10 =
b10 D
b10 Y
b111 &
b111 ;
b111 L
0t
0<
b1000100010 (
b1000100010 4
b1000100010 Q
b1000100010 ]
b1000100010 f
b100010 7
b100010 l
b100010 #
b100010 C
b100010 `
b10100 6
b10100 _
b10100 *
b10100 U
b10100 ^
b1110010 P
b1110010 m
b111001 A
b111001 i
1$
1,
#350
0,
#355
0@
0N
b1000000001000 O
b1000000001000 j
b1000000001000 k
1t
1<
b111000 A
b111000 i
0$
b1001000001 (
b1001000001 4
b1001000001 Q
b1001000001 ]
b1001000001 f
b1000001 7
b1000001 l
b1000001 #
b1000001 C
b1000001 `
b10101 6
b10101 _
b10101 *
b10101 U
b10101 ^
1,
#360
0,
#365
b1 S
b1 X
b1 c
b1 p
b1 e
b1 5
b1 a
b1 r
b1 !
b1 :
b1 W
b1 Z
b1 \
b1 g
1E
0G
b10 B
b10 b
1J
1K
0M
b11010000010 O
b11010000010 j
b11010000010 k
b1 %
b1 =
b1 D
b1 Y
b100 &
b100 ;
b100 L
0t
0<
b101110011 (
b101110011 4
b101110011 Q
b101110011 ]
b101110011 f
b1110011 7
b1110011 l
b1110011 #
b1110011 C
b1110011 `
b10110 6
b10110 _
b10110 *
b10110 U
b10110 ^
b1000001 P
b1000001 m
b100001 A
b100001 i
1$
1,
#370
0,
#375
0E
1G
b0 B
b0 b
0J
0K
1M
b1000000001000 O
b1000000001000 j
b1000000001000 k
1t
1<
b100000 A
b100000 i
0$
b1 )
b1 3
b1 R
b1 d
b1 q
1,
#380
0,
#385
1@
1N
b1000000111000 O
b1000000111000 j
b1000000111000 k
b11 %
b11 =
b11 D
b11 Y
b111 &
b111 ;
b111 L
0t
0<
b1100110011 (
b1100110011 4
b1100110011 Q
b1100110011 ]
b1100110011 f
b110011 7
b110011 l
b110011 #
b110011 C
b110011 `
b10111 6
b10111 _
b10111 *
b10111 U
b10111 ^
b1110011 P
b1110011 m
b111001 A
b111001 i
1$
1,
#390
0,
#395
0@
0N
b1000000001000 O
b1000000001000 j
b1000000001000 k
1t
1<
b111000 A
b111000 i
0$
b1101100000 (
b1101100000 4
b1101100000 Q
b1101100000 ]
b1101100000 f
b1100000 7
b1100000 l
b1100000 #
b1100000 C
b1100000 `
b11000 6
b11000 _
b11000 *
b11000 U
b11000 ^
1,
#400
0,
#405
b0 n
0?
b1110 S
b1110 X
b1110 c
b1110 p
b1110 e
b1110 5
b1110 a
b1110 r
b1110 !
b1110 :
b1110 W
b1110 Z
b1110 \
b1110 g
b1110 h
0G
b10 B
b10 b
1J
1K
1N
b1011010100000 O
b1011010100000 j
b1011010100000 k
b0 %
b0 =
b0 D
b0 Y
b110 &
b110 ;
b110 L
0t
0<
b0 (
b0 4
b0 Q
b0 ]
b0 f
b0 7
b0 l
b0 #
b0 C
b0 `
b11001 6
b11001 _
b11001 *
b11001 U
b11001 ^
b1100000 P
b1100000 m
b110001 A
b110001 i
1$
1,
#410
0,
#415
1G
0N
b0 B
b0 b
0J
0K
b1000000001000 O
b1000000001000 j
b1000000001000 k
b0 n
0?
b1110 S
b1110 X
b1110 c
b1110 p
b1110 e
b1110 5
b1110 a
b1110 r
b1110 !
b1110 :
b1110 W
b1110 Z
b1110 \
b1110 g
1t
1<
bx h
b110000 A
b110000 i
0$
b1110 )
b1110 3
b1110 R
b1110 d
b1110 q
b1100001 (
b1100001 4
b1100001 Q
b1100001 ]
b1100001 f
b1100001 7
b1100001 l
b1100001 #
b1100001 C
b1100001 `
b11010 6
b11010 _
b11010 *
b11010 U
b11010 ^
1,
#420
0,
#425
b1111 S
b1111 X
b1111 c
b1111 p
b1111 e
b1111 5
b1111 a
b1111 r
b1111 !
b1111 :
b1111 W
b1111 Z
b1111 \
b1111 g
b1111 h
0G
1N
b10 B
b10 b
1J
1K
b1011010100000 O
b1011010100000 j
b1011010100000 k
b1 %
b1 =
b1 D
b1 Y
0t
0<
b100010001 (
b100010001 4
b100010001 Q
b100010001 ]
b100010001 f
b10001 7
b10001 l
b10001 #
b10001 C
b10001 `
b11011 6
b11011 _
b11011 *
b11011 U
b11011 ^
b1100001 P
b1100001 m
b110001 A
b110001 i
1$
1,
#430
0,
#435
1G
0N
b0 B
b0 b
0J
0K
b1000000001000 O
b1000000001000 j
b1000000001000 k
b0 n
0?
b1111 S
b1111 X
b1111 c
b1111 p
b1111 e
b1111 5
b1111 a
b1111 r
b1111 !
b1111 :
b1111 W
b1111 Z
b1111 \
b1111 g
1t
1<
bx h
b110000 A
b110000 i
0$
b1111 )
b1111 3
b1111 R
b1111 d
b1111 q
b101100010 (
b101100010 4
b101100010 Q
b101100010 ]
b101100010 f
b1100010 7
b1100010 l
b1100010 #
b1100010 C
b1100010 `
b11100 6
b11100 _
b11100 *
b11100 U
b11100 ^
1,
#440
0,
#445
b1010 S
b1010 X
b1010 c
b1010 p
b1010 e
b1010 5
b1010 a
b1010 r
b1010 !
b1010 :
b1010 W
b1010 Z
b1010 \
b1010 g
b1010 h
0G
1N
b10 B
b10 b
1J
1K
b1011010100000 O
b1011010100000 j
b1011010100000 k
b10 %
b10 =
b10 D
b10 Y
0t
0<
b1000100010 (
b1000100010 4
b1000100010 Q
b1000100010 ]
b1000100010 f
b100010 7
b100010 l
b100010 #
b100010 C
b100010 `
b11101 6
b11101 _
b11101 *
b11101 U
b11101 ^
b1100010 P
b1100010 m
b110001 A
b110001 i
1$
1,
#450
0,
#455
1G
0N
b0 B
b0 b
0J
0K
b1000000001000 O
b1000000001000 j
b1000000001000 k
b0 n
0?
b1010 S
b1010 X
b1010 c
b1010 p
b1010 e
b1010 5
b1010 a
b1010 r
b1010 !
b1010 :
b1010 W
b1010 Z
b1010 \
b1010 g
1t
1<
bx h
b110000 A
b110000 i
0$
b1010 )
b1010 3
b1010 R
b1010 d
b1010 q
b1001100011 (
b1001100011 4
b1001100011 Q
b1001100011 ]
b1001100011 f
b1100011 7
b1100011 l
b1100011 #
b1100011 C
b1100011 `
b11110 6
b11110 _
b11110 *
b11110 U
b11110 ^
1,
#460
0,
#465
b1 S
b1 X
b1 c
b1 p
b1 e
b1 5
b1 a
b1 r
b1 !
b1 :
b1 W
b1 Z
b1 \
b1 g
b1 h
0G
1N
b10 B
b10 b
1J
1K
b1011010100000 O
b1011010100000 j
b1011010100000 k
b11 %
b11 =
b11 D
b11 Y
0t
0<
b1100110011 (
b1100110011 4
b1100110011 Q
b1100110011 ]
b1100110011 f
b110011 7
b110011 l
b110011 #
b110011 C
b110011 `
b11111 6
b11111 _
b11111 *
b11111 U
b11111 ^
b1100011 P
b1100011 m
b110001 A
b110001 i
1$
1,
#470
0,
#475
1G
0N
b0 B
b0 b
0J
0K
b1000000001000 O
b1000000001000 j
b1000000001000 k
b0 n
0?
b1 S
b1 X
b1 c
b1 p
b1 e
b1 5
b1 a
b1 r
b1 !
b1 :
b1 W
b1 Z
b1 \
b1 g
1t
1<
bx h
b110000 A
b110000 i
0$
b1 )
b1 3
b1 R
b1 d
b1 q
b1101001010 (
b1101001010 4
b1101001010 Q
b1101001010 ]
b1101001010 f
b1001010 7
b1001010 l
b1001010 #
b1001010 C
b1001010 `
b100000 6
b100000 _
b100000 *
b100000 U
b100000 ^
1,
#476
b111100000 2
#480
0,
#485
b0 n
0?
b1010 S
b1010 X
b1010 c
b1010 p
b1010 e
b1010 5
b1010 a
b1010 r
b1010 !
b1010 :
b1010 W
b1010 Z
b1010 \
b1010 g
1E
0M
0G
b10 B
b10 b
1J
1K
b11010000010 O
b11010000010 j
b11010000010 k
b1010 %
b1010 =
b1010 D
b1010 Y
b100 &
b100 ;
b100 L
0t
0<
b101011110010 (
b101011110010 4
b101011110010 Q
b101011110010 ]
b101011110010 f
b11110010 7
b11110010 l
b11110010 #
b11110010 C
b11110010 `
b100001 6
b100001 _
b100001 *
b100001 U
b100001 ^
b1001010 P
b1001010 m
b100001 A
b100001 i
1$
1,
#490
0,
#495
0E
1G
b0 B
b0 b
0J
0K
1M
b1000000001000 O
b1000000001000 j
b1000000001000 k
1t
1<
b100000 A
b100000 i
0$
b1010 )
b1010 3
b1010 R
b1010 d
b1010 q
1,
#500
0,
